OMIREMI, ZAINAB, DAMILOLA,8108590022,F,ANF,ANF,8108590022,OGUN 
OLABINJO, MARY, OLUWADAMILOLA,8035622754,F,PED,PED,8035622754,OGUN
KOMOYE, GAFAR, DAMILOLA,9033929801,M,PED,PED,7033885492,OGUN
ANIMASAHUN, SODIQ, OLAYINKA,8180928183,M,PED,PED,8180928183,LAGOS
RAJI, RUKAYAT,,8106647091,F,PED,PED,8039509104,OSUN
BANKOLE, OLAMIDE, AJIBOLA,8060707891,M,PED,PED,7081353396,OGUN
TORIOLA, ZAINAB ,MORENIKEJI,8136922722,F,PED,PED,8162802245,OGUN
