
15/1324,0,0,0,
15/1348,0,0,0,
15/1351,0,0,0,
15/1368,0,0,0,
16/1429,0,0,0,
16/1430,0,0,0,
16/1431,0,0,0,
16/1432,0,0,0,
16/1433,0,0,0,
16/1434,0,0,0,
16/1435,0,0,0,
16/1436,0,0,0,
16/1437,0,0,0,
16/1438,0,0,0,
16/1439,0,0,0,
16/1440,0,0,0,
16/1441,0,0,0,
16/1442,0,0,0,
16/1443,0,0,0,
16/1444,0,0,0,
16/1445,0,0,0,
16/1446,0,0,0,
16/1448,0,0,0,
16/1449,0,0,0,
16/1450,0,0,0,
16/1451,0,0,0,
16/1452,0,0,0,
16/1453,0,0,0,
16/1454,0,0,0,
16/1455,0,0,0,
16/1456,0,0,0,
16/1457,0,0,0,
16/1458,0,0,0,
16/1459,0,0,0,
16/1460,0,0,0,
16/1461,0,0,0,
16/1462,0,0,0,
16/1463,0,0,0,
16/1464,0,0,0,
16/1465,0,0,0,
16/1466,0,0,0,
16/1467,0,0,0,
16/1468,0,0,0,
16/1469,0,0,0,
16/1470,0,0,0,
16/1471,0,0,0,
16/1472,0,0,0,
16/1473,0,0,0,
16/1474,0,0,0,
16/1475,0,0,0,
16/1476,0,0,0,
16/1477,0,0,0,
16/1478,0,0,0,
16/1479,0,0,0,
16/1480,0,0,0,
16/1481,0,0,0,
16/1482,0,0,0,
16/1483,0,0,0,
16/1484,0,0,0,
16/1485,0,0,0,
16/1486,0,0,0,
16/1487,0,0,0,
16/1488,0,0,0,
16/1489,0,0,0,
16/1490,0,0,0,
16/1491,0,0,0,
16/1492,0,0,0,
16/1493,0,0,0,
16/1494,0,0,0,
16/1495,0,0,0,
16/1496,0,0,0,
16/1497,0,0,0,
16/1498,0,0,0,
16/1499,0,0,0,
16/1500,0,0,0,
16/1501,0,0,0,
16/1502,0,0,0,
16/1503,0,0,0,
16/1504,0,0,0,
16/1505,0,0,0,
16/1506,0,0,0,
16/1507,0,0,0,
16/1508,0,0,0,
16/1509,0,0,0,
16/1510,0,0,0,
16/1511,0,0,0,
16/1512,0,0,0,
16/1513,0,0,0,
16/1514,0,0,0,
16/1515,0,0,0,
16/1516,0,0,0,
16/1517,0,0,0,
16/1518,0,0,0,
16/1519,0,0,0,
16/1520,0,0,0,
16/1521,0,0,0,
16/1522,0,0,0,
16/1523,0,0,0,
16/1524,0,0,0,
16/1525,0,0,0,
16/1526,0,0,0,
16/1527,0,0,0,
16/1528,0,0,0,
16/1529,0,0,0,
16/1530,0,0,0,
16/1531,0,0,0,
16/1532,0,0,0,
