Matric Number,CA,EXAM,Total
15/0429,23,34,0
15/0430,35,22,0
15/0432,34,22,0
15/0433,0,0,0
15/0434,0,0,0
15/0435,0,0,0
15/0436,0,0,0
15/0437,0,0,0
15/0438,0,0,0
15/0439,0,0,0
15/0440,0,0,0
15/0441,0,0,0
15/0442,0,0,0
15/0444,0,0,0
15/0445,0,0,0
15/0446,0,0,0
15/0447,0,0,0
15/0448,0,0,0
15/0449,0,0,0
15/0450,0,0,0
15/0451,0,0,0
15/0452,0,0,0
15/0453,0,0,0
15/0454,0,0,0
15/0455,0,0,0
15/0456,0,0,0
15/0457,0,0,0
15/0458,0,0,0
15/0459,0,0,0
15/0460,0,0,0
15/0461,0,0,0
15/0462,0,0,0
15/0463,0,0,0
15/0464,0,0,0
15/0465,0,0,0
15/0466,0,0,0
15/0467,0,0,0
15/0468,0,0,0
15/0469,0,0,0
15/0470,0,0,0
15/0471,0,0,0
15/0472,0,0,0
15/0473,0,0,0
15/0474,0,0,0
15/0475,0,0,0
15/0476,0,0,0
15/0477,0,0,0
15/0478,0,0,0
15/0479,0,0,0
15/0480,0,0,0
15/1670,0,0,0
15/1677,0,0,0
